{
    "/js/FormOptions.js": "/js/FormOptions.js",
    "/js/app.js": "/js/app.js",
    "/css/app.css": "/css/app.css",
    "/js/dataTable.js": "/js/dataTable.js",
    "/js/modal.js": "/js/modal.js",
    "/js/notifications.js": "/js/notifications.js",
    "/js/jquery.form.js": "/js/jquery.form.js"
}
